{
    "_id": "5bebf1713ffcc704caf38cf4",
    "tags": [
        "set",
        "prime"
    ],
    "icon": "icons/en/Akvasto_Prime_Set.029887bbd387510ffec1debd81f65dab.png",
    "thumb": "icons/en/thumbs/Akvasto_Prime_Set.029887bbd387510ffec1debd81f65dab.128x128.png",
    "icon_format": "land",
    "url_name": "akvasto_prime_set",
    "tradable": true,
    "part_of_set": [
        "5bebf1713ffcc704caf38cf4",
        "5bebf1713ffcc704caf38cf6",
        "5bebf1713ffcc704caf38cf7"
    ],
    "set_root": true,
    "en": {
        "item_name": "Akvasto Prime Set",
        "description": "<p>The Akvasto Prime is the primed version of the Akvasto revolver, sporting higher offensive stats at some expense to fire rate.</p>",
        "wiki_link": "http://warframe.wikia.com/wiki/Vasto_Prime",
        "drop": []
    },
    "ru": {
        "item_name": "\u0410\u043a\u0432\u0430\u0441\u0442\u043e \u041f\u0440\u0430\u0439\u043c \u041a\u043e\u043c\u043f\u043b\u0435\u043a\u0442",
        "description": "<p>\u041f\u0440\u0430\u0439\u043c \u0432\u0435\u0440\u0441\u0438\u044f \u0440\u0435\u0432\u043e\u043b\u044c\u0432\u0435\u0440\u043e\u0432 \u0410\u043a\u0432\u0430\u0441\u0442\u043e.</p>",
        "wiki_link": "https://warframe.fandom.com/wiki/Akvasto_Prime",
        "drop": []
    },
    "ko": {
        "item_name": "\uc544\ud06c\ubc14\uc2a4\ud1a0 \ud504\ub77c\uc784 \uc138\ud2b8",
        "description": "<p>The Akvasto Prime is the primed version of the Akvasto revolver, sporting higher offensive stats at some expense to fire rate.</p>",
        "wiki_link": "http://warframe.wikia.com/wiki/Vasto_Prime",
        "drop": []
    },
    "mastery_level": 12,
    "trading_tax": 2000,
    "ducats": 145
}