{
    "_id": "56783f24cbfa8f0432dd899b",
    "tags": [
        "set",
        "prime"
    ],
    "icon": "icons/en/fang_prime_set.13b0c690a76382d0fbdebe84e4c509db.png",
    "thumb": "icons/en/thumbs/fang_prime_set.13b0c690a76382d0fbdebe84e4c509db.128x128.png",
    "icon_format": "land",
    "url_name": "fang_prime_set",
    "tradable": true,
    "part_of_set": [
        "56783f24cbfa8f0432dd899b",
        "54a73e65e779893a797fff40",
        "54a73e65e779893a797fff41",
        "54a73e65e779893a797fff42"
    ],
    "set_root": true,
    "en": {
        "item_name": "Fang Prime Set",
        "description": "<p>Fang Prime features a higher base damage than Fang as well as a faster attack speed. The Fang Prime was added into the game in Update 9.0. </p>",
        "wiki_link": "http://warframe.wikia.com/wiki/Fang_Prime",
        "drop": []
    },
    "ru": {
        "item_name": "\u041a\u043b\u044b\u043a\u0438 \u043f\u0440\u0430\u0439\u043c \u041a\u043e\u043c\u043f\u043b\u0435\u043a\u0442",
        "description": "<p>\u041d\u0430\u0431\u043e\u0440 \u0440\u0438\u0442\u0443\u0430\u043b\u044c\u043d\u044b\u0445 \u043a\u0438\u043d\u0436\u0430\u043b\u043e\u0432 \u0438\u0437 \u044d\u0440\u044b \u041e\u0440\u043e\u043a\u0438\u043d, \u041a\u043b\u044b\u043a\u0438 \u041f\u0440\u0430\u0439\u043c \u0441\u0438\u043b\u044c\u043d\u043e \u0432\u0438\u0431\u0440\u0438\u0440\u0443\u0435\u0442 \u0441 \u043a\u0430\u0436\u0434\u044b\u043c \u0443\u0434\u0430\u0440\u043e\u043c. \u042d\u0442\u043e \u043f\u043e\u0437\u0432\u043e\u043b\u044f\u0435\u0442 \u0438\u043c \u0441 \u043b\u0435\u0433\u043a\u043e\u0441\u0442\u044c\u044e \u043f\u0440\u043e\u0431\u0438\u0432\u0430\u0442\u044c \u043b\u044e\u0431\u0443\u044e \u0431\u0440\u043e\u043d\u044e.</p>",
        "wiki_link": "http://ru.warframe.wikia.com/wiki/%D0%9A%D0%BB%D1%8B%D0%BA%D0%B8_%D0%BF%D1%80%D0%B0%D0%B9%D0%BC/\u041f\u0440\u0430\u0439\u043c",
        "drop": []
    },
    "ko": {
        "item_name": "\ud33d \ud504\ub77c\uc784 \uc138\ud2b8",
        "description": "<p>Fang Prime features a higher base damage than Fang as well as a faster attack speed. The Fang Prime was added into the game in Update 9.0. </p>",
        "wiki_link": "http://warframe.wikia.com/wiki/Fang_Prime",
        "drop": []
    },
    "mastery_level": 10,
    "trading_tax": 2000,
    "ducats": 95
}