{
    "_id": "56783f24cbfa8f0432dd899d",
    "tags": [
        "set",
        "prime"
    ],
    "icon": "icons/en/Glaive_Prime_Set.17767ab370f143a315df90177995ef92.png",
    "thumb": "icons/en/thumbs/Glaive_Prime_Set.17767ab370f143a315df90177995ef92.128x128.png",
    "icon_format": "land",
    "url_name": "glaive_prime_set",
    "tradable": true,
    "part_of_set": [
        "56783f24cbfa8f0432dd899d",
        "54a73e65e779893a797fff43",
        "54a73e65e779893a797fff44",
        "54a73e65e779893a797fff45"
    ],
    "set_root": true,
    "en": {
        "item_name": "Glaive Prime Set",
        "description": "<p>The Glaive Prime is a Primed version of the Glaive. The Glaive Prime was added into the game in Update 11.0. If thrown, this weapon will bounce five times before returning to its owner or after reaching 30m away from its owner. </p>",
        "wiki_link": "http://warframe.wikia.com/wiki/Glaive_Prime",
        "drop": []
    },
    "ru": {
        "item_name": "\u0413\u043b\u0435\u0444\u0430 \u043f\u0440\u0430\u0439\u043c \u041a\u043e\u043c\u043f\u043b\u0435\u043a\u0442",
        "description": "<p>\u0413\u043b\u0435\u0444\u0430 \u041f\u0440\u0430\u0439\u043c - \u0441\u043c\u0435\u0440\u0442\u0435\u043b\u044c\u043d\u043e\u0435 \u0438 \u043a\u0440\u0430\u0441\u0438\u0432\u043e\u0435 \u043e\u0440\u0443\u0436\u0438\u0435 \u042d\u043f\u043e\u0445\u0438 \u041e\u0440\u043e\u043a\u0438\u043d. \u0415\u0451 \u043b\u0435\u0437\u0432\u0438\u044f \u044f\u0432\u043b\u044f\u044e\u0442\u0441\u044f \u044d\u0444\u0444\u0435\u043a\u0442\u0438\u0432\u043d\u044b\u043c\u0438 \u0432 \u0442\u0435\u0441\u043d\u043e\u043c \u043f\u043e\u043c\u0435\u0449\u0435\u043d\u0438\u0438, \u043a\u043e\u0433\u0434\u0430 \u043e\u043d\u0438 \u0432\u044b\u043f\u0443\u0449\u0435\u043d\u044b \u0432 \u043d\u0430\u043f\u0440\u0430\u0432\u043b\u0435\u043d\u0438\u0438 \u0432\u0440\u0430\u0433\u043e\u0432.</p>",
        "wiki_link": "http://ru.warframe.wikia.com/wiki/%D0%93%D0%BB%D0%B5%D1%84%D0%B0_%D0%BF%D1%80%D0%B0%D0%B9%D0%BC/\u041f\u0440\u0430\u0439\u043c",
        "drop": []
    },
    "ko": {
        "item_name": "\uae00\ub808\uc774\ube0c \ud504\ub77c\uc784 \uc138\ud2b8",
        "description": "<p>The Glaive Prime is a Primed version of the Glaive. The Glaive Prime was added into the game in Update 11.0. If thrown, this weapon will bounce five times before returning to its owner or after reaching 30m away from its owner. </p>",
        "wiki_link": "http://warframe.wikia.com/wiki/Glaive_Prime",
        "drop": []
    },
    "mastery_level": 10,
    "trading_tax": 2000,
    "ducats": 190
}