{
    "_id": "5ab167b7b2b6a80475780fb3",
    "tags": [
        "prime",
        "set"
    ],
    "icon": "icons/en/kronen_prime_set.09023145e06199878b94a9c664e95ce7.png",
    "thumb": "icons/en/thumbs/kronen_prime_set.09023145e06199878b94a9c664e95ce7.128x128.png",
    "icon_format": "port",
    "url_name": "kronen_prime_set",
    "tradable": true,
    "part_of_set": [
        "5ab167b7b2b6a80475780fb3",
        "5ab167b7b2b6a80475780fad",
        "5ab167b7b2b6a80475780fb5",
        "5ab167b9b2b6a80475780fd1"
    ],
    "set_root": true,
    "en": {
        "item_name": "Kronen Prime Set",
        "description": "<p>The Kronen Prime is the Prime version of the Kronen tonfas.</p>",
        "wiki_link": "http://warframe.wikia.com/wiki/Kronen_Prime",
        "drop": []
    },
    "ru": {
        "item_name": "\u041a\u0440\u043e\u043d\u0435\u043d \u041f\u0440\u0430\u0439\u043c \u041a\u043e\u043c\u043f\u043b\u0435\u043a\u0442",
        "description": "<p>\u041a\u043b\u0438\u043d\u043a\u0438 \u0431\u044b\u043b\u043e\u0433\u043e, \u0443\u043b\u0443\u0447\u0448\u0435\u043d\u043d\u044b\u0435 \u0434\u043b\u044f \u0431\u0438\u0442\u0432 \u0442\u0435\u043a\u0443\u0449\u0438\u0445.</p>",
        "wiki_link": "http://ru.warframe.wikia.com/wiki/%D0%9A%D1%80%D0%BE%D0%BD%D0%B5%D0%BD",
        "drop": []
    },
    "ko": {
        "item_name": "\ud06c\ub85c\ub128 \ud504\ub77c\uc784 \uc138\ud2b8",
        "description": "<p>The Kronen Prime is the Prime version of the Kronen tonfas.</p>",
        "wiki_link": "http://warframe.wikia.com/wiki/Kronen_Prime",
        "drop": []
    },
    "mastery_level": 13,
    "trading_tax": 2000,
    "ducats": 305
}