{
    "_id": "5b2987abeb069f0536234278",
    "tags": [
        "set",
        "prime",
        "warframe"
    ],
    "icon": "icons/en/Limbo_Prime_Set.7bfbc70bd8438594d45a47fba260b174.png",
    "thumb": "icons/en/thumbs/Limbo_Prime_Set.7bfbc70bd8438594d45a47fba260b174.128x128.png",
    "icon_format": "port",
    "url_name": "limbo_prime_set",
    "tradable": true,
    "part_of_set": [
        "5b2987abeb069f0536234278",
        "5b2987aaeb069f0536234276",
        "5b2987abeb069f0536234277",
        "5b2987abeb069f0536234279",
        "5b2987abeb069f053623427a"
    ],
    "set_root": true,
    "en": {
        "item_name": "Limbo Prime Set",
        "description": "<p>Release Date: June 19, 2018</p><p>Limbo Prime is a Primed variant of Limbo.</p>",
        "wiki_link": "http://warframe.wikia.com/wiki/Limbo/Prime",
        "drop": []
    },
    "ru": {
        "item_name": "\u041b\u0438\u043c\u0431\u043e \u041f\u0440\u0430\u0439\u043c \u041a\u043e\u043c\u043f\u043b\u0435\u043a\u0442",
        "description": "<p>Release Date: June 19, 2018</p><p>Limbo Prime is a Primed variant of Limbo.</p>",
        "wiki_link": "http://warframe.wikia.com/wiki/Limbo/Prime",
        "drop": []
    },
    "ko": {
        "item_name": "\ub9bc\ubcf4 \ud504\ub77c\uc784 \uc138\ud2b8",
        "description": "<p>Release Date: June 19, 2018</p><p>Limbo Prime is a Primed variant of Limbo.</p>",
        "wiki_link": "http://warframe.wikia.com/wiki/Limbo/Prime",
        "drop": []
    },
    "mastery_level": 4,
    "trading_tax": 4000,
    "ducats": 260
}