{
    "_id": "56783f24cbfa8f0432dd89a9",
    "tags": [
        "set",
        "prime"
    ],
    "icon": "icons/en/Paris_Prime_Set.971f957f8304ce10617836343d47b238.png",
    "thumb": "icons/en/thumbs/Paris_Prime_Set.971f957f8304ce10617836343d47b238.128x128.png",
    "icon_format": "land",
    "url_name": "paris_prime_set",
    "tradable": true,
    "part_of_set": [
        "56783f24cbfa8f0432dd89a9",
        "54a73e65e779893a797fff55",
        "54a73e65e779893a797fff53",
        "54a73e65e779893a797fff54",
        "54a73e65e779893a797fff56",
        "54a73e65e779893a797fff57"
    ],
    "set_root": true,
    "en": {
        "item_name": "Paris Prime Set",
        "description": "<p>The Paris Prime features higher base and charge damage, and a faster draw time than the Paris. The Paris Prime was added into the game in Update 9.0.</p>",
        "wiki_link": "http://warframe.wikia.com/wiki/Paris_Prime",
        "drop": []
    },
    "ru": {
        "item_name": "\u041f\u0430\u0440\u0438\u0441 \u043f\u0440\u0430\u0439\u043c \u041a\u043e\u043c\u043f\u043b\u0435\u043a\u0442",
        "description": "<p>\u041e\u0431\u043d\u0430\u0440\u0443\u0436\u0435\u043d\u043d\u044b\u0439 \u0433\u043b\u0443\u0431\u043e\u043a\u043e \u0432\u043d\u0443\u0442\u0440\u0438 \u0434\u0440\u0435\u0432\u043d\u0438\u0445 \u0440\u0443\u0438\u043d \u041e\u0440\u043e\u043a\u0438\u043d, \u041f\u0430\u0440\u0438\u0441 \u041f\u0440\u0430\u0439\u043c \u0437\u043d\u0430\u0447\u0438\u0442\u0435\u043b\u044c\u043d\u043e \u0443\u0432\u0435\u043b\u0438\u0447\u0438\u0432\u0430\u0435\u0442 \u043a\u0438\u043d\u0435\u0442\u0438\u0447\u0435\u0441\u043a\u0443\u044e \u044d\u043d\u0435\u0440\u0433\u0438\u044e \u0432\u044b\u043f\u0443\u0449\u0435\u043d\u043d\u044b\u0445 \u0441\u0442\u0440\u0435\u043b, \u043d\u0430\u043d\u043e\u0441\u044f \u0431\u043e\u043b\u044c\u0448\u0435 \u0443\u0440\u043e\u043d\u0430, \u0447\u0435\u043c \u0435\u0433\u043e \u043e\u0431\u044b\u0447\u043d\u0430\u044f \u0432\u0435\u0440\u0441\u0438\u044f.</p>",
        "wiki_link": "http://ru.warframe.wikia.com/wiki/%D0%9F%D0%B0%D1%80%D0%B8%D1%81_%D0%BF%D1%80%D0%B0%D0%B9%D0%BC/\u041f\u0440\u0430\u0439\u043c",
        "drop": []
    },
    "ko": {
        "item_name": "\ud328\ub9ac\uc2a4 \ud504\ub77c\uc784 \uc138\ud2b8",
        "description": "<p>The Paris Prime features higher base and charge damage, and a faster draw time than the Paris. The Paris Prime was added into the game in Update 9.0.</p>",
        "wiki_link": "http://warframe.wikia.com/wiki/Paris_Prime",
        "drop": []
    },
    "mastery_level": 8,
    "trading_tax": 2000,
    "ducats": 115
}