{
    "_id": "5dff6e1014569703166749e8",
    "tags": [
        "avionic"
    ],
    "icon": "icons/en/forward_artillery_(zetki).ff5f23593d0850514dd7b63c3a16d8c9.png",
    "thumb": "icons/en/thumbs/forward_artillery_(zetki).ff5f23593d0850514dd7b63c3a16d8c9.128x128.png",
    "icon_format": "port",
    "url_name": "forward_artillery_(zetki)",
    "tradable": true,
    "en": {
        "item_name": "Forward Artillery (Zetki)",
        "description": "A Integrated Avionics that increases Forward Artillery (the Tunguska cannon) Damage",
        "wiki_link": "https://warframe.fandom.com/wiki/Avionics#Forward_Artillery",
        "drop": [
            {
                "name": "Exo Cutter",
                "link": null
            },
            {
                "name": "Kosma Outrider",
                "link": null
            },
            {
                "name": "Elite Exo Taktis",
                "link": null
            },
            {
                "name": "Gyre Outrider",
                "link": null
            }
        ]
    },
    "ru": {
        "item_name": "Forward Artillery (Zetki)",
        "description": "A Integrated Avionics that increases Forward Artillery (the Tunguska cannon) Damage",
        "wiki_link": "https://warframe.fandom.com/wiki/Avionics#Forward_Artillery",
        "drop": [
            {
                "name": "Exo Cutter",
                "link": null
            },
            {
                "name": "Kosma Outrider",
                "link": null
            },
            {
                "name": "Elite Exo Taktis",
                "link": null
            },
            {
                "name": "Gyre Outrider",
                "link": null
            }
        ]
    },
    "ko": {
        "item_name": "Forward Artillery (Zetki)",
        "description": "A Integrated Avionics that increases Forward Artillery (the Tunguska cannon) Damage",
        "wiki_link": "https://warframe.fandom.com/wiki/Avionics#Forward_Artillery",
        "drop": [
            {
                "name": "Exo Cutter",
                "link": null
            },
            {
                "name": "Kosma Outrider",
                "link": null
            },
            {
                "name": "Elite Exo Taktis",
                "link": null
            },
            {
                "name": "Gyre Outrider",
                "link": null
            }
        ]
    },
    "mod_max_rank": 7
}