{
    "_id": "5dff6e111456970316674a1f",
    "tags": [
        "avionic"
    ],
    "icon": "icons/en/last_stand_(lavan).ff5f23593d0850514dd7b63c3a16d8c9.png",
    "thumb": "icons/en/thumbs/last_stand_(lavan).ff5f23593d0850514dd7b63c3a16d8c9.128x128.png",
    "icon_format": "port",
    "url_name": "last_stand_(lavan)",
    "tradable": true,
    "en": {
        "item_name": "Last Stand (Lavan)",
        "description": "A Integrated Avionics that increases All Turret Damage when Hull is below 20%. This avionic is listed twice under the Gyre Cutter's drop table.",
        "wiki_link": "https://warframe.fandom.com/wiki/Avionics#Last_Stand",
        "drop": [
            {
                "name": "Kosma Cutter",
                "link": null
            },
            {
                "name": "Exo Flak",
                "link": null
            },
            {
                "name": "Gyre Cutter",
                "link": null
            },
            {
                "name": "Gyre Cutter",
                "link": null
            }
        ]
    },
    "ru": {
        "item_name": "Last Stand (Lavan)",
        "description": "A Integrated Avionics that increases All Turret Damage when Hull is below 20%. This avionic is listed twice under the Gyre Cutter's drop table.",
        "wiki_link": "https://warframe.fandom.com/wiki/Avionics#Last_Stand",
        "drop": [
            {
                "name": "Kosma Cutter",
                "link": null
            },
            {
                "name": "Exo Flak",
                "link": null
            },
            {
                "name": "Gyre Cutter",
                "link": null
            },
            {
                "name": "Gyre Cutter",
                "link": null
            }
        ]
    },
    "ko": {
        "item_name": "Last Stand (Lavan)",
        "description": "A Integrated Avionics that increases All Turret Damage when Hull is below 20%. This avionic is listed twice under the Gyre Cutter's drop table.",
        "wiki_link": "https://warframe.fandom.com/wiki/Avionics#Last_Stand",
        "drop": [
            {
                "name": "Kosma Cutter",
                "link": null
            },
            {
                "name": "Exo Flak",
                "link": null
            },
            {
                "name": "Gyre Cutter",
                "link": null
            },
            {
                "name": "Gyre Cutter",
                "link": null
            }
        ]
    }
}