{
    "_id": "5dff6e0f14569703166749cd",
    "tags": [
        "avionic"
    ],
    "icon": "icons/en/predator_(zetki).ff5f23593d0850514dd7b63c3a16d8c9.png",
    "thumb": "icons/en/thumbs/predator_(zetki).ff5f23593d0850514dd7b63c3a16d8c9.128x128.png",
    "icon_format": "port",
    "url_name": "predator_(zetki)",
    "tradable": true,
    "en": {
        "item_name": "Predator (Zetki)",
        "description": "A Integrated Avionics that increases all Turret Critical Chance.  Drops from Exo Taktis (0.101%), Gyre Taktis (0.101%), and Elite Gyre Flak (0.737%).",
        "wiki_link": "https://warframe.fandom.com/wiki/Avionics#Predator",
        "drop": [
            {
                "name": "Exo Taktis",
                "link": null
            },
            {
                "name": "Gyre Taktis",
                "link": null
            },
            {
                "name": "Elite Gyre Flak",
                "link": null
            }
        ]
    },
    "ru": {
        "item_name": "Predator (Zetki)",
        "description": "A Integrated Avionics that increases all Turret Critical Chance.  Drops from Exo Taktis (0.101%), Gyre Taktis (0.101%), and Elite Gyre Flak (0.737%).",
        "wiki_link": "https://warframe.fandom.com/wiki/Avionics#Predator",
        "drop": [
            {
                "name": "Exo Taktis",
                "link": null
            },
            {
                "name": "Gyre Taktis",
                "link": null
            },
            {
                "name": "Elite Gyre Flak",
                "link": null
            }
        ]
    },
    "ko": {
        "item_name": "Predator (Zetki)",
        "description": "A Integrated Avionics that increases all Turret Critical Chance.  Drops from Exo Taktis (0.101%), Gyre Taktis (0.101%), and Elite Gyre Flak (0.737%).",
        "wiki_link": "https://warframe.fandom.com/wiki/Avionics#Predator",
        "drop": [
            {
                "name": "Exo Taktis",
                "link": null
            },
            {
                "name": "Gyre Taktis",
                "link": null
            },
            {
                "name": "Elite Gyre Flak",
                "link": null
            }
        ]
    },
    "mod_max_rank": 4
}