{
    "_id": "585a93012c2ada004f1a297e",
    "tags": [
        "sentinel",
        "prisma"
    ],
    "icon": "icons/en/Prisma_Shade.cc1c7bc7c621300a6af014b735ec3430.png",
    "thumb": "icons/en/thumbs/Prisma_Shade.cc1c7bc7c621300a6af014b735ec3430.128x128.png",
    "icon_format": "port",
    "url_name": "prisma_shade",
    "tradable": false,
    "en": {
        "item_name": "Prisma Shade",
        "description": "<p>The Prisma Shade is the Shade Sentinel given the Prisma treatment, giving it modified stats over the original, and an included Prisma Burst Laser. This is the first sentinel to be given a Prisma counterpart.</p>",
        "wiki_link": "http://warframe.wikia.com/wiki/Prisma_Shade",
        "drop": []
    },
    "ru": {
        "item_name": "Шейд призма",
        "description": "<p>Шейд призма является призма версией обычного Шейда, отличается от последнего увеличенными бронёй, щитами и одной дополнительной Нарамон полярностью.</p>",
        "wiki_link": "http://ru.warframe.wikia.com/wiki/%D0%A8%D0%B5%D0%B9%D0%B4/%D0%9F%D1%80%D0%B8%D0%B7%D0%BC%D0%B0",
        "drop": []
    },
    "ko": {
        "item_name": "프리즈마 셰이드",
        "description": "<p>The Prisma Shade is the Shade Sentinel given the Prisma treatment, giving it modified stats over the original, and an included Prisma Burst Laser. This is the first sentinel to be given a Prisma counterpart.</p>",
        "wiki_link": "http://warframe.wikia.com/wiki/Prisma_Shade",
        "drop": []
    },
    "trading_tax": 4000
}