{
    "_id": "5e6248fc7d76f2c26d1b7c5d",
    "url_name": "allergic_to_nature",
    "en": {
        "item_name": "Allergic to Nature",
        "description": "Talks about being allergic to nature"
    },
    "ru": {
        "item_name": "Allergic to Nature",
        "description": "Talks about being allergic to nature"
    },
    "ko": {
        "item_name": "Allergic to Nature",
        "description": "Talks about being allergic to nature"
    }
}