{
    "_id": "5e6248fc7d76f2c26d1b7c60",
    "url_name": "poor_sense_of_balance",
    "en": {
        "item_name": "Poor Sense of Balance",
        "description": "The lich will retreat after kneeling down and without stabbing"
    },
    "ru": {
        "item_name": "Poor Sense of Balance",
        "description": "The lich will retreat after kneeling down and without stabbing"
    },
    "ko": {
        "item_name": "Poor Sense of Balance",
        "description": "The lich will retreat after kneeling down and without stabbing"
    }
}