{
    "_id": "5e6248fc7d76f2c26d1b7c5f",
    "url_name": "vain",
    "en": {
        "item_name": "Vain",
        "description": "Talks about how beautiful they are after appearing on a mission"
    },
    "ru": {
        "item_name": "Vain",
        "description": "Talks about how beautiful they are after appearing on a mission"
    },
    "ko": {
        "item_name": "Vain",
        "description": "Talks about how beautiful they are after appearing on a mission"
    }
}