{
    "_id": "5e623fe57d76f2651c72c90d",
    "url_name": "vengeful_shockwave",
    "icon": "icons/en/vengeful_shockwave.6020e14eb5e9516d4bc6ccf5023c864c.png",
    "thumb": "icons/en/thumbs/vengeful_shockwave.6020e14eb5e9516d4bc6ccf5023c864c.128x128.png",
    "icon_format": "port",
    "animation": "animations/vengeful_shockwave.f21e4d9383391189861ce443af7659d7.gif",
    "animation_format": "land",
    "element": "impact",
    "en": {
        "item_name": "Vengeful Shockwave",
        "wiki_link": "https://warframe.fandom.com/wiki/Kuva_Lich#Ephemera"
    },
    "ru": {
        "item_name": "Vengeful Shockwave",
        "wiki_link": "https://warframe.fandom.com/wiki/Kuva_Lich#Ephemera"
    },
    "ko": {
        "item_name": "Vengeful Shockwave",
        "wiki_link": "https://warframe.fandom.com/wiki/Kuva_Lich#Ephemera"
    }
}