{
    "_id": "5e62431a7d76f28630fbdf32",
    "url_name": "kuva_karak",
    "icon": "icons/en/kuva_karak.f2894fbcac608f83a75e4d91c13af406.png",
    "thumb": "icons/en/thumbs/kuva_karak.f2894fbcac608f83a75e4d91c13af406.128x128.png",
    "icon_format": "land",
    "en": {
        "item_name": "Kuva Karak",
        "wiki_link": "https://warframe.fandom.com/wiki/Kuva_Karak"
    },
    "ru": {
        "item_name": "Карак Кува",
        "wiki_link": "https://warframe.fandom.com/ru/wiki/%D0%9A%D0%B0%D1%80%D0%B0%D0%BA_%D0%9A%D1%83%D0%B2%D0%B0"
    },
    "ko": {
        "item_name": "Kuva Karak",
        "wiki_link": "https://warframe.fandom.com/wiki/Kuva_Karak"
    }
}